%YAML 1.1
%TAG !u! tag:unity3d.com,2011:
--- !u!114 &11400000
MonoBehaviour:
  m_ObjectHideFlags: 0
  m_CorrespondingSourceObject: {fileID: 0}
  m_PrefabInstance: {fileID: 0}
  m_PrefabAsset: {fileID: 0}
  m_GameObject: {fileID: 0}
  m_Enabled: 1
  m_EditorHideFlags: 0
  m_Script: {fileID: 11500000, guid: 2ae9a1b4cd5e8e9429c39daef8703bd8, type: 3}
  m_Name: Opponent Army
  m_EditorClassIdentifier: 
  armyUnits:
  - {fileID: 11400000, guid: f95d7172679100747a7bf461e161f112, type: 2}
  - {fileID: 11400000, guid: 265e3c5187408e44888343888da68bcd, type: 2}
