%YAML 1.1
%TAG !u! tag:unity3d.com,2011:
--- !u!114 &11400000
MonoBehaviour:
  m_ObjectHideFlags: 0
  m_CorrespondingSourceObject: {fileID: 0}
  m_PrefabInstance: {fileID: 0}
  m_PrefabAsset: {fileID: 0}
  m_GameObject: {fileID: 0}
  m_Enabled: 1
  m_EditorHideFlags: 0
  m_Script: {fileID: 11500000, guid: ecdc730806d566a48b62e3ad72e687bb, type: 3}
  m_Name: Monster
  m_EditorClassIdentifier: 
  ID: 1
  nameInGame: Monster
  army: 0
  cardType: 1
  sprite: {fileID: 21300000, guid: 2b944fa0b7c65094686c8d35b2f9581e, type: 3}
  description: <b>Damage</b> a enemy card with <b>{0}</b> damage points
  health: 12
  damage: 4
  healValue: 0
