%YAML 1.1
%TAG !u! tag:unity3d.com,2011:
--- !u!114 &11400000
MonoBehaviour:
  m_ObjectHideFlags: 0
  m_CorrespondingSourceObject: {fileID: 0}
  m_PrefabInstance: {fileID: 0}
  m_PrefabAsset: {fileID: 0}
  m_GameObject: {fileID: 0}
  m_Enabled: 1
  m_EditorHideFlags: 0
  m_Script: {fileID: 11500000, guid: ecdc730806d566a48b62e3ad72e687bb, type: 3}
  m_Name: Nilfgaard DPS
  m_EditorClassIdentifier: 
  ID: 0
  nameInGame: Nilfgaaard
  army: 1
  cardType: 1
  sprite: {fileID: 21300000, guid: 9c10143f024efac4cb252c1ff67ac376, type: 3}
  description: <b>Damage</b> a enemy card with <b>{0}</b> damage points
  health: 12
  damage: 4
  healValue: 0
